What’s time got to do with it? - Looking at teh relationship of final grades and Science Courses
…
Data Source #1: Log Data

Log-trace data is data generated from our interactions with digital technologies, such as archived data from social media postings. In education, an increasingly common source of log-trace data is that generated from interactions with LMS and other digital tools. It is a summary type of log-trace data: the number of minutes students spent on the course.

Using the read_csv() function from {readr} and the here function from the {here} pacakage to import our log-data.csv file directly from our data folder and name this data set time_spent.

Code

#load with here package
time_spent <- read_csv(here("data", "log-data.csv"))

#inspect data
time_spent

# A tibble: 716 × 6
   student_id course_id     gender enrollment_reason             enrol…¹ time_…²
        <dbl> <chr>         <chr>  <chr>                         <chr>     <dbl>
 1      60186 AnPhA-S116-01 M      Course Unavailable at Local … Approv…   2087.
 2      66693 AnPhA-S116-01 M      Course Unavailable at Local … Approv…   2309.
 3      66811 AnPhA-S116-01 F      Course Unavailable at Local … Approv…   5299.
 4      66862 AnPhA-S116-01 F      Course Unavailable at Local … Approv…   1747.
 5      67508 AnPhA-S116-01 F      Scheduling Conflict           Approv…   2668.
 6      70532 AnPhA-S116-01 F      Learning Preference of the S… Approv…   2938.
 7      77010 AnPhA-S116-01 F      Learning Preference of the S… Approv…   1533.
 8      85249 AnPhA-S116-01 F      Course Unavailable at Local … Approv…   1210.
 9      85411 AnPhA-S116-01 F      Scheduling Conflict           Approv…    473.
10      85583 AnPhA-S116-01 F      Scheduling Conflict           Approv…   5532.
# … with 706 more rows, and abbreviated variable names ¹​enrollment_status,
#   ²​time_spent
…
Now, we will work on the Gradebook dataset.Like the previous dataset, we will seperate course_id variable again.

Code

# separate the course_id variable
gradebook <- gradebook %>% 
  separate(course_id, c("subject", "section", "semester"))

# Mutate to a proportion, take total points earned divide by total points. Save as new variable proportion_earned.
gradebook <- gradebook %>% 
  mutate(proportion_earned = (total_points_earned / total_points_possible * 100))

gradebook

# A tibble: 717 × 7
   student_id subject section semester total_points_possible total_poi…¹ propo…²
        <dbl> <chr>   <chr>   <chr>                    <dbl>       <dbl>   <dbl>
 1      43146 FrScA   S216    02                        1217       1150    94.5 
 2      44638 OcnA    S116    01                        1676       1384.   82.6 
 3      47448 FrScA   S216    01                        1232       1116    90.6 
 4      47979 OcnA    S216    01                        1833       1493.   81.4 
 5      48797 PhysA   S116    01                        2225       1995.   89.7 
 6      51943 FrScA   S216    03                        1222         70     5.73
 7      52326 AnPhA   S216    01                        1775       1519.   85.5 
 8      52446 PhysA   S116    01                        2225       2198    98.8 
 9      53447 FrScA   S116    01                        1212       1173    96.8 
10      53475 FrScA   S116    02                        1212          0     0   
# … with 707 more rows, and abbreviated variable names ¹​total_points_earned,
#   ²​proportion_earned
…
# load janitor to clean variable names that do not match
library(janitor)

#clean column
survey <- clean_names(survey)

#separate course_id in survey by subject. section and semester
survey <- survey %>% 
  separate(course_id, c("subject", "section", "semester"))

#inspect data to check for consistency with other data
survey

# A tibble: 662 × 25
   student…¹ subject section semes…²   int   val percomp    tv    q1    q2    q3
   <chr>     <chr>   <chr>   <chr>   <dbl> <dbl>   <dbl> <dbl> <dbl> <dbl> <dbl>
 1 43146     FrScA   S216    02        4.2  3.67     4    3.86     4     4     4
 2 44638     OcnA    S116    01        4    3        3    3.57     4     2     2
 3 47448     FrScA   S216    01        4.2  3        3    3.71     5     3     3
 4 47979     OcnA    S216    01        4    3.67     2.5  3.86     4     3     2
 5 48797     PhysA   S116    01        3.8  3.67     3.5  3.71     4     4     3
 6 51943     FrScA   S216    03        3.8  3.67     3.5  3.71     4     4     3
 7 52326     AnPhA   S216    01        3.6  4        3    4        4     4     4
 8 52446     PhysA   S116    01        4.2  3.67     3    4        4     4     3
 9 53447     FrScA   S116    01        3.8  2        3    3        5     2     3
10 53475     FrScA   S216    01        4.8  3.33     4    4.14     5     4     4
# … with 652 more rows, 14 more variables: q4 <dbl>, q5 <dbl>, q6 <dbl>,
#   q7 <dbl>, q8 <dbl>, q9 <dbl>, q10 <dbl>, date_x <dttm>, post_int <dbl>,
#   post_uv <dbl>, post_tv <dbl>, post_percomp <dbl>, date_y <dttm>,
#   date <dttm>, and abbreviated variable names ¹​student_id, ²​semester
…
We will also need to change the classification of student_id variable to character from double.

Code

# use single join to join data sets by student_id, subject, semester and section.
joined_data <- full_join(gradebook, time_spent_2, 
                         by = c("student_id", "subject", "section", "semester"))

#mutate to change variable class from double or numeric to character to join with survey data
joined_data <- joined_data %>%
  mutate(student_id = as.character(student_id))

joined_data

# A tibble: 830 × 12
   student_id subject section semester total_po…¹ total…² propo…³ gender enrol…⁴
   <chr>      <chr>   <chr>   <chr>         <dbl>   <dbl>   <dbl> <chr>  <chr>  
 1 43146      FrScA   S216    02             1217   1150    94.5  F      Course…
 2 44638      OcnA    S116    01             1676   1384.   82.6  M      Course…
 3 47448      FrScA   S216    01             1232   1116    90.6  F      Other  
 4 47979      OcnA    S216    01             1833   1493.   81.4  M      Course…
 5 48797      PhysA   S116    01             2225   1995.   89.7  M      Learni…
 6 51943      FrScA   S216    03             1222     70     5.73 M      Learni…
 7 52326      AnPhA   S216    01             1775   1519.   85.5  F      Other  
 8 52446      PhysA   S116    01             2225   2198    98.8  F      Learni…
 9 53447      FrScA   S116    01             1212   1173    96.8  F      Course…
10 53475      FrScA   S116    02             1212      0     0    F      Course…
# … with 820 more rows, 3 more variables: enrollment_status <chr>,
#   time_spent <dbl>, time_spent_hours <dbl>, and abbreviated variable names
#   ¹​total_points_possible, ²​total_points_earned, ³​proportion_earned,
#   ⁴​enrollment_reason
…
# recode abbreviated code names to long name
data_to_explore <- data_to_explore |>
  mutate(subject = recode(subject, 
                          "AnPhA" = "Anatomy",
                          "BioA" = "Biology", 
                          "FrScA" = "Forensics", 
                          "OcnA" =  "Oceanography", 
                          "PhysA" = "Physics"))

# inspect data
data_to_explore

# A tibble: 943 × 33
   student_id subject     section semes…¹ total…² total…³ propo…⁴ gender enrol…⁵
   <chr>      <chr>       <chr>   <chr>     <dbl>   <dbl>   <dbl> <chr>  <chr>  
 1 43146      Forensics   S216    02         1217   1150    94.5  F      Course…
 2 44638      Oceanograp… S116    01         1676   1384.   82.6  M      Course…
 3 47448      Forensics   S216    01         1232   1116    90.6  F      Other  
 4 47979      Oceanograp… S216    01         1833   1493.   81.4  M      Course…
 5 48797      Physics     S116    01         2225   1995.   89.7  M      Learni…
 6 51943      Forensics   S216    03         1222     70     5.73 M      Learni…
 7 52326      Anatomy     S216    01         1775   1519.   85.5  F      Other  
 8 52446      Physics     S116    01         2225   2198    98.8  F      Learni…
 9 53447      Forensics   S116    01         1212   1173    96.8  F      Course…
10 53475      Forensics   S116    02         1212      0     0    F      Course…
# … with 933 more rows, 24 more variables: enrollment_status <chr>,
#   time_spent <dbl>, time_spent_hours <dbl>, int <dbl>, val <dbl>,
#   percomp <dbl>, tv <dbl>, q1 <dbl>, q2 <dbl>, q3 <dbl>, q4 <dbl>, q5 <dbl>,
#   q6 <dbl>, q7 <dbl>, q8 <dbl>, q9 <dbl>, q10 <dbl>, date_x <dttm>,
#   post_int <dbl>, post_uv <dbl>, post_tv <dbl>, post_percomp <dbl>,
#   date_y <dttm>, date <dttm>, and abbreviated variable names ¹​semester,
#   ²​total_points_possible, ³​total_points_earned, ⁴​proportion_earned, …
…
